{"page":{"size":10,"page":1,"total":100,"pageCount":10,"first":1,"hasNext":true,"nextPage":2,"hasPre":false,"prePage":1},"list":
[
  {"spreadUserPic":"bd5ed2db0cfb4a9f99cdcde224391175","messageType":2,"comments":"就到家都觉得\uD83D\uDE03\uD83D\uDE02\uD83D\uDE04","spreadMessageId":1363407416590400,"momentsId":1362821979832352,"userName":"cod_60003138@cod.xinhoo.com","messageId":1363407416590368,"smStatus":1,"createTime":1596808118595,"modifyTime":1596808118595,"fileProperties":"{\"duration\":0,\"filename\":\"IMG_20200720_202506_BURST14.jpg\",\"firstpic\":\"\",\"size\":918718,\"filepic\":\"b6b06277ed614d6580b315132a6c0677\",\"w\":3000,\"h\":4000}","read":1,"momentsType":2,"content":"春节几句话","spreadUserName":"cod_60003158@cod.xinhoo.com","spreadUserNickName":"魅族002","spreadReplayUserNickName":"姚锐凝","momentsStatus":1,"messageStatus":1},
  {"spreadUserPic":"bd5ed2db0cfb4a9f99cdcde224391175","messageType":2,"comments":"好纠结比较疯狂的经理反馈进度来看发发打发了就拉发法大幅","spreadMessageId":1363407357870144,"momentsId":1362821979832352,"userName":"cod_60003138@cod.xinhoo.com","messageId":1363407357870112,"smStatus":1,"createTime":1596808090572,"modifyTime":1596808090572,"fileProperties":"{\"duration\":0,\"filename\":\"IMG_20200720_202506_BURST14.jpg\",\"firstpic\":\"\",\"size\":918718,\"filepic\":\"b6b06277ed614d6580b315132a6c0677\",\"w\":3000,\"h\":4000}","read":1,"momentsType":3,"content":"春节几句话","spreadUserName":"cod_60003158@cod.xinhoo.com","spreadUserNickName":"魅族002","spreadReplayUserNickName":null,"momentsStatus":1,"messageStatus":1},
  {"spreadUserPic":"bd5ed2db0cfb4a9f99cdcde224391175","messageType":2,"comments":"回家姐姐","spreadMessageId":1363407326412864,"momentsId":1362821979832352,"userName":"cod_60003138@cod.xinhoo.com","messageId":1363407326412832,"smStatus":1,"createTime":1596808075910,"modifyTime":1596808075910,"fileProperties":"{\"duration\":0,\"filename\":\"IMG_20200720_202506_BURST14.jpg\",\"firstpic\":\"\",\"size\":918718,\"filepic\":\"b6b06277ed614d6580b315132a6c0677\",\"w\":3000,\"h\":4000}","read":1,"momentsType":2,"content":"春节几句话","spreadUserName":"cod_60003158@cod.xinhoo.com","spreadUserNickName":"魅族002","spreadReplayUserNickName":"姚锐凝","momentsStatus":1,"messageStatus":1},
  {"spreadUserPic":"618f834d3dd74a9c90c640308869f5ed","messageType":1,"comments":null,"spreadMessageId":1363131542536256,"momentsId":1362821979832352,"userName":"cod_60003138@cod.xinhoo.com","messageId":1363131542536224,"smStatus":1,"createTime":1596676571586,"modifyTime":1596676571586,"fileProperties":"{\"duration\":0,\"filename\":\"IMG_20200720_202506_BURST14.jpg\",\"firstpic\":\"\",\"size\":918718,\"filepic\":\"b6b06277ed614d6580b315132a6c0677\",\"w\":3000,\"h\":4000}","read":1,"momentsType":2,"content":"春节几句话","spreadUserName":"cod_60000524@cod.xinhoo.com","spreadUserNickName":"不要艾特我@小仙女","spreadReplayUserNickName":null,"momentsStatus":1,"messageStatus":1},
  {"spreadUserPic":"bd5ed2db0cfb4a9f99cdcde224391175","messageType":1,"comments":null,"spreadMessageId":1362993013063744,"momentsId":1362821979832352,"userName":"cod_60003138@cod.xinhoo.com","messageId":1362993013063712,"smStatus":1,"createTime":1596610515661,"modifyTime":1596610515661,"fileProperties":"{\"duration\":0,\"filename\":\"IMG_20200720_202506_BURST14.jpg\",\"firstpic\":\"\",\"size\":918718,\"filepic\":\"b6b06277ed614d6580b315132a6c0677\",\"w\":3000,\"h\":4000}","read":1,"momentsType":2,"content":"春节几句话","spreadUserName":"cod_60003158@cod.xinhoo.com","spreadUserNickName":"魅族002","spreadReplayUserNickName":null,"momentsStatus":1,"messageStatus":2},
  {"spreadUserPic":"bd5ed2db0cfb4a9f99cdcde224391175","messageType":2,"comments":"蛤蛤蛤","spreadMessageId":1362990884454464,"momentsId":1362821979832352,"userName":"cod_60003138@cod.xinhoo.com","messageId":1362990884454432,"smStatus":1,"createTime":1596609500216,"modifyTime":1596609500216,"fileProperties":"{\"duration\":0,\"filename\":\"IMG_20200720_202506_BURST14.jpg\",\"firstpic\":\"\",\"size\":918718,\"filepic\":\"b6b06277ed614d6580b315132a6c0677\",\"w\":3000,\"h\":4000}","read":1,"momentsType":2,"content":"春节几句话","spreadUserName":"cod_60003158@cod.xinhoo.com","spreadUserNickName":"魅族002","spreadReplayUserNickName":null,"momentsStatus":1,"messageStatus":1},
  {"spreadUserPic":"bd5ed2db0cfb4a9f99cdcde224391175","messageType":3,"comments":"v不好好","spreadMessageId":1362968545591360,"momentsId":1362821979832352,"userName":"cod_60003138@cod.xinhoo.com","messageId":1362968545591328,"smStatus":1,"createTime":1596598848073,"modifyTime":1596598848073,"fileProperties":"{\"duration\":0,\"filename\":\"IMG_20200720_202506_BURST14.jpg\",\"firstpic\":\"\",\"size\":918718,\"filepic\":\"b6b06277ed614d6580b315132a6c0677\",\"w\":3000,\"h\":4000}","read":1,"momentsType":2,"content":"春节几句话","spreadUserName":"cod_60003158@cod.xinhoo.com","spreadUserNickName":"魅族002","spreadReplayUserNickName":null,"momentsStatus":1,"messageStatus":2},
  {"spreadUserPic":"bd5ed2db0cfb4a9f99cdcde224391175","messageType":2,"comments":"回家姐姐","spreadMessageId":1362968344264768,"momentsId":1362821979832352,"userName":"cod_60003138@cod.xinhoo.com","messageId":1362968344264736,"smStatus":1,"createTime":1596598752821,"modifyTime":1596598752821,"fileProperties":"{\"duration\":0,\"filename\":\"IMG_20200720_202506_BURST14.jpg\",\"firstpic\":\"\",\"size\":918718,\"filepic\":\"b6b06277ed614d6580b315132a6c0677\",\"w\":3000,\"h\":4000}","read":1,"momentsType":2,"content":"春节几句话","spreadUserName":"cod_60003158@cod.xinhoo.com","spreadUserNickName":"魅族002","spreadReplayUserNickName":"姚锐凝","momentsStatus":1,"messageStatus":2},
  {"spreadUserPic":"bd5ed2db0cfb4a9f99cdcde224391175","messageType":2,"comments":"同意哈哈","spreadMessageId":1362968117772320,"momentsId":1362821979832352,"userName":"cod_60003138@cod.xinhoo.com","messageId":1362968115675168,"smStatus":1,"createTime":1596598643976,"modifyTime":1596598643976,"fileProperties":"{\"duration\":0,\"filename\":\"IMG_20200720_202506_BURST14.jpg\",\"firstpic\":\"\",\"size\":918718,\"filepic\":\"b6b06277ed614d6580b315132a6c0677\",\"w\":3000,\"h\":4000}","read":1,"momentsType":2,"content":"春节几句话","spreadUserName":"cod_60003158@cod.xinhoo.com","spreadUserNickName":"魅族002","spreadReplayUserNickName":null,"momentsStatus":1,"messageStatus":1},
  {"spreadUserPic":"bd5ed2db0cfb4a9f99cdcde224391175","messageType":2,"comments":"不像你出成绩","spreadMessageId":1362954073145408,"momentsId":1362821979832352,"userName":"cod_60003138@cod.xinhoo.com","messageId":1362954073145376,"smStatus":1,"createTime":1596591947863,"modifyTime":1596591947863,"fileProperties":"{\"duration\":0,\"filename\":\"IMG_20200720_202506_BURST14.jpg\",\"firstpic\":\"\",\"size\":918718,\"filepic\":\"b6b06277ed614d6580b315132a6c0677\",\"w\":3000,\"h\":4000}","read":1,"momentsType":2,"content":"春节几句话","spreadUserName":"cod_60003158@cod.xinhoo.com","spreadUserNickName":"魅族002","spreadReplayUserNickName":null,"momentsStatus":1,"messageStatus":2}]}